<?xml version="1.0" encoding="UTF-8" standalone="no"?>
<!-- Created with Inkscape (http://www.inkscape.org/) -->

<svg
   xmlns:dc="http://purl.org/dc/elements/1.1/"
   xmlns:cc="http://creativecommons.org/ns#"
   xmlns:rdf="http://www.w3.org/1999/02/22-rdf-syntax-ns#"
   xmlns:svg="http://www.w3.org/2000/svg"
   xmlns="http://www.w3.org/2000/svg"
   xmlns:sodipodi="http://sodipodi.sourceforge.net/DTD/sodipodi-0.dtd"
   xmlns:inkscape="http://www.inkscape.org/namespaces/inkscape"
   width="32"
   height="32"
   viewBox="0 0 8.4666665 8.4666669"
   version="1.1"
   id="svg8"
   inkscape:version="0.92.5 (2060ec1f9f, 2020-04-08)"
   sodipodi:docname="io.gitlab.FlatStore.svg">
  <defs
     id="defs2">
    <inkscape:perspective
       sodipodi:type="inkscape:persp3d"
       inkscape:vp_x="-3.611618 : 8.1209288 : 1"
       inkscape:vp_y="0 : 2521.8339 : 0"
       inkscape:vp_z="15.901592 : 7.9341965 : 1"
       inkscape:persp3d-origin="7.4104051 : -0.89066325 : 1"
       id="perspective835" />
  </defs>
  <sodipodi:namedview
     id="base"
     pagecolor="#ffffff"
     bordercolor="#666666"
     borderopacity="1.0"
     inkscape:pageopacity="0.0"
     inkscape:pageshadow="2"
     inkscape:zoom="14.481547"
     inkscape:cx="29.728212"
     inkscape:cy="12.35071"
     inkscape:document-units="mm"
     inkscape:current-layer="layer1"
     showgrid="false"
     units="px"
     inkscape:window-width="1851"
     inkscape:window-height="1016"
     inkscape:window-x="69"
     inkscape:window-y="27"
     inkscape:window-maximized="1"
     inkscape:pagecheckerboard="true" />
  <metadata
     id="metadata5">
    <rdf:RDF>
      <cc:Work
         rdf:about="">
        <dc:format>image/svg+xml</dc:format>
        <dc:type
           rdf:resource="http://purl.org/dc/dcmitype/StillImage" />
        <dc:title></dc:title>
      </cc:Work>
    </rdf:RDF>
  </metadata>
  <g
     inkscape:label="Vrstva 1"
     inkscape:groupmode="layer"
     id="layer1"
     transform="translate(0,-288.53332)">
    <rect
       style="fill:#ffffff;fill-opacity:1;stroke:#00aad4;stroke-width:0.26458333;stroke-linejoin:round;stroke-miterlimit:4;stroke-dasharray:none;stroke-opacity:1;paint-order:stroke fill markers"
       id="rect815-6"
       width="2.9104166"
       height="1.3229166"
       x="2.778125"
       y="289.98853"
       rx="0.1"
       ry="0.1" />
    <rect
       style="fill:#ffffff;fill-opacity:1;stroke:#00aad4;stroke-width:0.26458333;stroke-linejoin:round;stroke-miterlimit:4;stroke-dasharray:none;stroke-opacity:1;paint-order:stroke fill markers"
       id="rect815"
       width="7.1437502"
       height="5.0270834"
       x="0.66145831"
       y="291.04688"
       ry="0.1"
       rx="0.1" />
    <g
       sodipodi:type="inkscape:box3d"
       id="g865"
       style="fill:none;fill-opacity:1;stroke:none;stroke-width:2.15483689;stroke-linejoin:miter;stroke-miterlimit:4;stroke-dasharray:none;stroke-opacity:1"
       inkscape:perspectiveID="#perspective835"
       inkscape:corner0="0.76142372 : 0.0012232774 : 0 : 1"
       inkscape:corner7="0.43791339 : -6.3290163e-05 : 0.25206681 : 1">
      <path
         sodipodi:type="inkscape:box3dside"
         id="path867"
         style="fill:#353564;fill-rule:evenodd;stroke:none;stroke-width:1.8404417;stroke-linejoin:round;stroke-miterlimit:4;stroke-dasharray:none"
         inkscape:box3dsidetype="6"
         d="m 2.6458333,292.24377 v 1.84198 l 1.6594749,-0.62844 v -1.61138 z"
         points="2.6458333,294.08575 4.3053082,293.45731 4.3053082,291.84593 2.6458333,292.24377 " />
      <path
         sodipodi:type="inkscape:box3dside"
         id="path875"
         style="fill:#afafde;fill-rule:evenodd;stroke:none;stroke-width:1.8404417;stroke-linejoin:round;stroke-miterlimit:4;stroke-dasharray:none"
         inkscape:box3dsidetype="13"
         d="m 2.6458333,294.08575 1.4078388,1.17144 1.7671612,-0.92347 -1.5155251,-0.87641 z"
         points="4.0536721,295.25719 5.8208333,294.33372 4.3053082,293.45731 2.6458333,294.08575 " />
      <path
         sodipodi:type="inkscape:box3dside"
         id="path877"
         style="fill:#e9e9ff;fill-rule:evenodd;stroke:none;stroke-width:1.8404417;stroke-linejoin:round;stroke-miterlimit:4;stroke-dasharray:none"
         inkscape:box3dsidetype="11"
         d="m 4.3053082,291.84593 1.5155251,0.56794 v 1.91985 l -1.5155251,-0.87641 z"
         points="5.8208333,292.41387 5.8208333,294.33372 4.3053082,293.45731 4.3053082,291.84593 " />
      <path
         sodipodi:type="inkscape:box3dside"
         id="path869"
         style="fill:#e9e3bb;fill-opacity:1;fill-rule:evenodd;stroke:#000000;stroke-width:0.13229167;stroke-linecap:butt;stroke-linejoin:round;stroke-miterlimit:4;stroke-dasharray:none;stroke-opacity:0.96541784;paint-order:stroke fill markers"
         inkscape:box3dsidetype="5"
         d="m 2.6458333,292.24377 1.4078388,0.75702 1.7671612,-0.58692 -1.5155251,-0.56794 z"
         points="4.0536721,293.00079 5.8208333,292.41387 4.3053082,291.84593 2.6458333,292.24377 " />
      <path
         sodipodi:type="inkscape:box3dside"
         id="path873"
         style="fill:#e9ddaf;fill-opacity:1;fill-rule:evenodd;stroke:#000000;stroke-width:0.13229167;stroke-linejoin:round;stroke-miterlimit:4;stroke-dasharray:none;stroke-opacity:0.96541784;paint-order:stroke fill markers"
         inkscape:box3dsidetype="14"
         d="m 4.0536721,293.00079 v 2.2564 l 1.7671612,-0.92347 v -1.91985 z"
         points="4.0536721,295.25719 5.8208333,294.33372 5.8208333,292.41387 4.0536721,293.00079 " />
      <path
         sodipodi:type="inkscape:box3dside"
         id="path871"
         style="fill:#dfd89d;fill-opacity:1;fill-rule:evenodd;stroke:#000000;stroke-width:0.13229167;stroke-linecap:round;stroke-linejoin:round;stroke-miterlimit:4;stroke-dasharray:none;stroke-opacity:0.96541784;paint-order:stroke fill markers"
         inkscape:box3dsidetype="3"
         d="m 2.6458333,292.24377 1.4078388,0.75702 v 2.2564 l -1.4078388,-1.17144 z"
         points="4.0536721,293.00079 4.0536721,295.25719 2.6458333,294.08575 2.6458333,292.24377 " />
    </g>
  </g>
</svg>
